{
    "version": 2,
    "builds": [
      {
        "src": "./src/*.ts",
        "use": "@now/node@canary"
      }
    ],
    "env": {
      "IS_NOW": "true"
    },
    "routes": [
      { "src": "/(.*)", "dest": "/src/index.ts" }
    ]
  }
  